<<<<<<< HEAD
Í°­È¢Í°­È¢
Í°­È¢H
=======
¨Íæ[
>>>>>>> 0bd7ef05d36d350cde81366153df7021e4f50c18
ÍÐÓÖÙ
©«­¯±

 ¨É¤¨¶á¦ñµ¦
sadhzghfdxf
¾¢¾¢
¨¢ ¨SZDJN¡»GGë